<?xml version="1.0" encoding="UTF-8" standalone="no"?>
<!-- Created with Inkscape (http://www.inkscape.org/) -->

<svg
   xmlns:osb="http://www.openswatchbook.org/uri/2009/osb"
   xmlns:dc="http://purl.org/dc/elements/1.1/"
   xmlns:cc="http://creativecommons.org/ns#"
   xmlns:rdf="http://www.w3.org/1999/02/22-rdf-syntax-ns#"
   xmlns:svg="http://www.w3.org/2000/svg"
   xmlns="http://www.w3.org/2000/svg"
   xmlns:xlink="http://www.w3.org/1999/xlink"
   xmlns:sodipodi="http://sodipodi.sourceforge.net/DTD/sodipodi-0.dtd"
   xmlns:inkscape="http://www.inkscape.org/namespaces/inkscape"
   width="1017.8571"
   height="465.75433"
   id="svg4947"
   version="1.1"
   inkscape:version="0.91 r13725"
   sodipodi:docname="D-Bus communications architecture - message bus.svg">
  <sodipodi:namedview
     id="base"
     pagecolor="#ffffff"
     bordercolor="#666666"
     borderopacity="1.0"
     inkscape:pageopacity="0.0"
     inkscape:pageshadow="2"
     inkscape:zoom="1.4"
     inkscape:cx="389.14728"
     inkscape:cy="272.55509"
     inkscape:document-units="px"
     inkscape:current-layer="layer1"
     showgrid="false"
     inkscape:window-width="1920"
     inkscape:window-height="1027"
     inkscape:window-x="0"
     inkscape:window-y="31"
     inkscape:window-maximized="1"
     inkscape:connector-spacing="3"
     showguides="true"
     fit-margin-top="40"
     fit-margin-left="30"
     fit-margin-right="30"
     fit-margin-bottom="10"
     inkscape:snap-text-baseline="true"
     inkscape:snap-grids="false">
    <inkscape:grid
       id="grid3032"
       type="xygrid"
       empspacing="5"
       visible="true"
       enabled="true"
       snapvisiblegridlinesonly="true"
       originx="4.4041786"
       originy="-204.12647" />
  </sodipodi:namedview>
  <defs
     id="defs4949">
    <marker
       style="overflow:visible"
       id="marker8785"
       refX="0"
       refY="0"
       orient="auto"
       inkscape:stockid="TriangleInMA0">
      <path
         transform="scale(-0.4,-0.4)"
         style="fill:#96f005;fill-opacity:1;fill-rule:evenodd;stroke:#96f005;stroke-width:1pt;stroke-opacity:1"
         d="m 5.77,0 -8.65,5 0,-10 8.65,5 z"
         id="path8787"
         inkscape:connector-curvature="0" />
    </marker>
    <marker
       inkscape:stockid="TriangleOutM"
       orient="auto"
       refY="0"
       refX="0"
       id="marker8547"
       style="overflow:visible">
      <path
         inkscape:connector-curvature="0"
         id="path8549"
         d="m 5.77,0 -8.65,5 0,-10 8.65,5 z"
         style="fill:#96f005;fill-opacity:1;fill-rule:evenodd;stroke:#96f005;stroke-width:1pt;stroke-opacity:1"
         transform="scale(0.4,0.4)" />
    </marker>
    <marker
       inkscape:stockid="TriangleInMA0"
       orient="auto"
       refY="0"
       refX="0"
       id="marker8333"
       style="overflow:visible">
      <path
         inkscape:connector-curvature="0"
         id="path8335"
         d="m 5.77,0 -8.65,5 0,-10 8.65,5 z"
         style="fill:#96f005;fill-opacity:1;fill-rule:evenodd;stroke:#96f005;stroke-width:1pt;stroke-opacity:1"
         transform="scale(-0.4,-0.4)" />
    </marker>
    <marker
       style="overflow:visible"
       id="marker4394"
       refX="0"
       refY="0"
       orient="auto"
       inkscape:stockid="TriangleInMA0"
       inkscape:collect="always">
      <path
         transform="scale(-0.4,-0.4)"
         style="fill:#000000;fill-opacity:1;fill-rule:evenodd;stroke:#000000;stroke-width:1pt;stroke-opacity:1"
         d="m 5.77,0 -8.65,5 0,-10 8.65,5 z"
         id="path4396"
         inkscape:connector-curvature="0" />
    </marker>
    <marker
       inkscape:stockid="Arrow2Mstart"
       orient="auto"
       refY="0"
       refX="0"
       id="Arrow2Mstart"
       style="overflow:visible"
       inkscape:isstock="true">
      <path
         id="path4783"
         style="fill:#000000;fill-opacity:1;fill-rule:evenodd;stroke:#000000;stroke-width:0.625;stroke-linejoin:round;stroke-opacity:1"
         d="M 8.7185878,4.0337352 -2.2072895,0.01601326 8.7185884,-4.0017078 c -1.7454984,2.3720609 -1.7354408,5.6174519 -6e-7,8.035443 z"
         transform="scale(0.6,0.6)"
         inkscape:connector-curvature="0" />
    </marker>
    <marker
       inkscape:stockid="Arrow1Mstart"
       orient="auto"
       refY="0"
       refX="0"
       id="Arrow1Mstart"
       style="overflow:visible"
       inkscape:isstock="true">
      <path
         id="path4765"
         d="M 0,0 5,-5 -12.5,0 5,5 0,0 Z"
         style="fill:#96f005;fill-opacity:1;fill-rule:evenodd;stroke:#96f005;stroke-width:1pt;stroke-opacity:1"
         transform="matrix(0.4,0,0,0.4,4,0)"
         inkscape:connector-curvature="0" />
    </marker>
    <marker
       inkscape:stockid="Arrow2Mend"
       orient="auto"
       refY="0"
       refX="0"
       id="Arrow2Mend"
       style="overflow:visible">
      <path
         id="path4283"
         style="fill-rule:evenodd;stroke-width:0.625;stroke-linejoin:round"
         d="M 8.7185878,4.0337352 -2.2072895,0.01601326 8.7185884,-4.0017078 c -1.7454984,2.3720609 -1.7354408,5.6174519 -6e-7,8.035443 z"
         transform="scale(-0.6,-0.6)"
         inkscape:connector-curvature="0" />
    </marker>
    <marker
       inkscape:stockid="Arrow2Send"
       orient="auto"
       refY="0"
       refX="0"
       id="Arrow2Send"
       style="overflow:visible">
      <path
         id="path4289"
         style="fill-rule:evenodd;stroke-width:0.625;stroke-linejoin:round"
         d="M 8.7185878,4.0337352 -2.2072895,0.01601326 8.7185884,-4.0017078 c -1.7454984,2.3720609 -1.7354408,5.6174519 -6e-7,8.035443 z"
         transform="matrix(-0.3,0,0,-0.3,0.69,0)"
         inkscape:connector-curvature="0" />
    </marker>
    <marker
       style="overflow:visible"
       id="TriangleOutS"
       refX="0"
       refY="0"
       orient="auto"
       inkscape:stockid="TriangleOutS">
      <path
         transform="scale(0.2,0.2)"
         style="fill-rule:evenodd;stroke:#000000;stroke-width:1pt"
         d="m 5.77,0 -8.65,5 0,-10 8.65,5 z"
         id="path4404"
         inkscape:connector-curvature="0" />
    </marker>
    <marker
       style="overflow:visible"
       id="TriangleOutL"
       refX="0"
       refY="0"
       orient="auto"
       inkscape:stockid="TriangleOutL">
      <path
         transform="scale(0.8,0.8)"
         style="fill-rule:evenodd;stroke:#000000;stroke-width:1pt"
         d="m 5.77,0 -8.65,5 0,-10 8.65,5 z"
         id="path4398"
         inkscape:connector-curvature="0" />
    </marker>
    <marker
       style="overflow:visible"
       id="TriangleOutM"
       refX="0"
       refY="0"
       orient="auto"
       inkscape:stockid="TriangleOutM"
       inkscape:collect="always">
      <path
         transform="scale(0.4,0.4)"
         style="fill:#000000;fill-opacity:1;fill-rule:evenodd;stroke:#000000;stroke-width:1pt;stroke-opacity:1"
         d="m 5.77,0 -8.65,5 0,-10 8.65,5 z"
         id="path4401"
         inkscape:connector-curvature="0" />
    </marker>
    <marker
       style="overflow:visible"
       id="Arrow1Mend"
       refX="0"
       refY="0"
       orient="auto"
       inkscape:stockid="Arrow1Mend">
      <path
         transform="matrix(-0.4,0,0,-0.4,-4,0)"
         style="fill-rule:evenodd;stroke:#000000;stroke-width:1pt"
         d="M 0,0 5,-5 -12.5,0 5,5 0,0 Z"
         id="path4265"
         inkscape:connector-curvature="0" />
    </marker>
    <linearGradient
       id="linearGradient7014"
       inkscape:collect="always">
      <stop
         id="stop7016"
         offset="0"
         style="stop-color:#000000;stop-opacity:1;" />
      <stop
         id="stop7018"
         offset="1"
         style="stop-color:#000000;stop-opacity:0;" />
    </linearGradient>
    <inkscape:perspective
       id="perspective6974"
       inkscape:persp3d-origin="640 : 240 : 1"
       inkscape:vp_z="720.37549 : 83.218206 : 1"
       inkscape:vp_y="0 : 1000 : 0"
       inkscape:vp_x="215.1625 : 379.1929 : 1"
       sodipodi:type="inkscape:persp3d" />
    <marker
       style="overflow:visible"
       id="Arrow2Lend"
       refX="0"
       refY="0"
       orient="auto"
       inkscape:stockid="Arrow2Lend">
      <path
         transform="matrix(-1.1,0,0,-1.1,-1.1,0)"
         d="M 8.7185878,4.0337352 -2.2072895,0.01601326 8.7185884,-4.0017078 c -1.7454984,2.3720609 -1.7354408,5.6174519 -6e-7,8.035443 z"
         style="fill-rule:evenodd;stroke-width:0.625;stroke-linejoin:round"
         id="path5693"
         inkscape:connector-curvature="0" />
    </marker>
    <marker
       style="overflow:visible"
       id="Arrow2Lstart"
       refX="0"
       refY="0"
       orient="auto"
       inkscape:stockid="Arrow2Lstart">
      <path
         transform="matrix(1.1,0,0,1.1,1.1,0)"
         d="M 8.7185878,4.0337352 -2.2072895,0.01601326 8.7185884,-4.0017078 c -1.7454984,2.3720609 -1.7354408,5.6174519 -6e-7,8.035443 z"
         style="fill-rule:evenodd;stroke-width:0.625;stroke-linejoin:round"
         id="path5690"
         inkscape:connector-curvature="0" />
    </marker>
    <marker
       style="overflow:visible"
       id="Arrow1Lstart"
       refX="0"
       refY="0"
       orient="auto"
       inkscape:stockid="Arrow1Lstart">
      <path
         transform="matrix(0.8,0,0,0.8,10,0)"
         style="fill-rule:evenodd;stroke:#000000;stroke-width:1pt"
         d="M 0,0 5,-5 -12.5,0 5,5 0,0 Z"
         id="path5672"
         inkscape:connector-curvature="0" />
    </marker>
    <linearGradient
       osb:paint="solid"
       id="linearGradient5586">
      <stop
         id="stop5588"
         offset="0"
         style="stop-color:#000000;stop-opacity:1;" />
    </linearGradient>
    <marker
       style="overflow:visible"
       id="Arrow2Lend-3"
       refX="0"
       refY="0"
       orient="auto"
       inkscape:stockid="Arrow2Lend">
      <path
         transform="matrix(-1.1,0,0,-1.1,-1.1,0)"
         d="M 8.7185878,4.0337352 -2.2072895,0.01601326 8.7185884,-4.0017078 c -1.7454984,2.3720609 -1.7354408,5.6174519 -6e-7,8.035443 z"
         style="fill-rule:evenodd;stroke-width:0.625;stroke-linejoin:round"
         id="path5693-5"
         inkscape:connector-curvature="0" />
    </marker>
    <marker
       style="overflow:visible"
       id="TriangleInSd4J"
       refX="0"
       refY="0"
       orient="auto"
       inkscape:stockid="TriangleInSd4J">
      <path
         inkscape:connector-curvature="0"
         transform="scale(-0.2,-0.2)"
         style="fill:#0197fd;fill-rule:evenodd;stroke:#0197fd;stroke-width:1pt"
         d="m 5.77,0 -8.65,5 0,-10 8.65,5 z"
         id="path3660" />
    </marker>
    <marker
       style="overflow:visible"
       id="TriangleOutScj1"
       refX="0"
       refY="0"
       orient="auto"
       inkscape:stockid="TriangleOutScj1">
      <path
         inkscape:connector-curvature="0"
         transform="scale(0.2,0.2)"
         style="fill:#0197fd;fill-rule:evenodd;stroke:#0197fd;stroke-width:1pt"
         d="m 5.77,0 -8.65,5 0,-10 8.65,5 z"
         id="path3663" />
    </marker>
    <linearGradient
       gradientUnits="userSpaceOnUse"
       y2="950.33679"
       x2="517.43854"
       y1="982.66162"
       x1="481.60236"
       id="linearGradient7020"
       xlink:href="#linearGradient7014"
       inkscape:collect="always" />
    <marker
       style="overflow:visible"
       id="TriangleOutScj1N"
       refX="0"
       refY="0"
       orient="auto"
       inkscape:stockid="TriangleOutScj1N">
      <path
         inkscape:connector-curvature="0"
         transform="scale(0.2,0.2)"
         style="fill:#4040fd;fill-rule:evenodd;stroke:#4040fd;stroke-width:1pt"
         d="m 5.77,0 -8.65,5 0,-10 8.65,5 z"
         id="path3050" />
    </marker>
    <marker
       style="overflow:visible"
       id="TriangleOutScj1NV"
       refX="0"
       refY="0"
       orient="auto"
       inkscape:stockid="TriangleOutScj1NV">
      <path
         inkscape:connector-curvature="0"
         transform="scale(0.2,0.2)"
         style="fill:#4040ff;fill-rule:evenodd;stroke:#4040ff;stroke-width:1pt"
         d="m 5.77,0 -8.65,5 0,-10 8.65,5 z"
         id="path3964" />
    </marker>
    <marker
       style="overflow:visible"
       id="TriangleOutS1"
       refX="0"
       refY="0"
       orient="auto"
       inkscape:stockid="TriangleOutS1">
      <path
         transform="scale(0.2,0.2)"
         style="fill:#ffac00;fill-rule:evenodd;stroke:#ffac00;stroke-width:1pt"
         d="m 5.77,0 -8.65,5 0,-10 8.65,5 z"
         id="path5620"
         inkscape:connector-curvature="0" />
    </marker>
    <marker
       style="overflow:visible"
       id="TriangleOutMy"
       refX="0"
       refY="0"
       orient="auto"
       inkscape:stockid="TriangleOutMy">
      <path
         transform="scale(0.4,0.4)"
         style="fill:#ffac00;fill-rule:evenodd;stroke:#ffac00;stroke-width:1pt"
         d="m 5.77,0 -8.65,5 0,-10 8.65,5 z"
         id="path5989"
         inkscape:connector-curvature="0" />
    </marker>
    <marker
       style="overflow:visible"
       id="TriangleOutMp"
       refX="0"
       refY="0"
       orient="auto"
       inkscape:stockid="TriangleOutMp">
      <path
         transform="scale(0.4,0.4)"
         style="fill:#ffac00;fill-rule:evenodd;stroke:#ffac00;stroke-width:1pt"
         d="m 5.77,0 -8.65,5 0,-10 8.65,5 z"
         id="path6364"
         inkscape:connector-curvature="0" />
    </marker>
    <marker
       style="overflow:visible"
       id="TriangleOutMO"
       refX="0"
       refY="0"
       orient="auto"
       inkscape:stockid="TriangleOutMO">
      <path
         transform="scale(0.4,0.4)"
         style="fill:#ffac00;fill-rule:evenodd;stroke:#ffac00;stroke-width:1pt"
         d="m 5.77,0 -8.65,5 0,-10 8.65,5 z"
         id="path6745"
         inkscape:connector-curvature="0" />
    </marker>
    <linearGradient
       y2="835.93359"
       x2="594.92047"
       y1="707.36218"
       x1="595.07965"
       gradientTransform="matrix(0.99140792,0,0,0.99999998,-1.2499063,12.14285)"
       gradientUnits="userSpaceOnUse"
       id="linearGradient7138-0"
       xlink:href="#linearGradient6995-8"
       inkscape:collect="always" />
    <linearGradient
       id="linearGradient6995-8"
       inkscape:collect="always">
      <stop
         id="stop6997-6"
         offset="0"
         style="stop-color:#c05050;stop-opacity:1;" />
      <stop
         id="stop6999-7"
         offset="1"
         style="stop-color:#c05050;stop-opacity:0;" />
    </linearGradient>
    <marker
       style="overflow:visible"
       id="TriangleOutSH"
       refX="0"
       refY="0"
       orient="auto"
       inkscape:stockid="TriangleOutSH">
      <path
         transform="scale(0.2,0.2)"
         style="fill:#e85050;fill-rule:evenodd;stroke:#e85050;stroke-width:1pt"
         d="m 5.77,0 -8.65,5 0,-10 8.65,5 z"
         id="path8099"
         inkscape:connector-curvature="0" />
    </marker>
    <marker
       style="overflow:visible"
       id="TriangleOutSS"
       refX="0"
       refY="0"
       orient="auto"
       inkscape:stockid="TriangleOutSS">
      <path
         transform="scale(0.2,0.2)"
         style="fill:#e85050;fill-rule:evenodd;stroke:#e85050;stroke-width:1pt"
         d="m 5.77,0 -8.65,5 0,-10 8.65,5 z"
         id="path10749"
         inkscape:connector-curvature="0" />
    </marker>
    <marker
       style="overflow:visible"
       id="TriangleOutSz"
       refX="0"
       refY="0"
       orient="auto"
       inkscape:stockid="TriangleOutSz">
      <path
         transform="scale(0.2,0.2)"
         style="fill:#000000;fill-rule:evenodd;stroke:#000000;stroke-width:1pt"
         d="m 5.77,0 -8.65,5 0,-10 8.65,5 z"
         id="path11296"
         inkscape:connector-curvature="0" />
    </marker>
    <marker
       inkscape:stockid="TriangleInMA0"
       orient="auto"
       refY="0"
       refX="0"
       id="TriangleInMA0"
       style="overflow:visible"
       inkscape:collect="always">
      <path
         inkscape:connector-curvature="0"
         id="path9110"
         d="m 5.77,0 -8.65,5 0,-10 8.65,5 z"
         style="fill:#000000;fill-opacity:1;fill-rule:evenodd;stroke:#000000;stroke-width:1pt;stroke-opacity:1"
         transform="scale(-0.4,-0.4)" />
    </marker>
    <marker
       inkscape:stockid="TriangleOutMjC"
       orient="auto"
       refY="0"
       refX="0"
       id="TriangleOutMjC"
       style="overflow:visible">
      <path
         inkscape:connector-curvature="0"
         id="path8973"
         d="m 5.77,0 -8.65,5 0,-10 8.65,5 z"
         style="fill:#0000ff;fill-rule:evenodd;stroke:#0000ff;stroke-width:1pt"
         transform="scale(0.4,0.4)" />
    </marker>
    <linearGradient
       y2="835.93359"
       x2="594.92047"
       y1="707.36218"
       x1="595.07965"
       gradientTransform="matrix(0.7681394,0,0,0.99584493,9.6231896,-25.71091)"
       gradientUnits="userSpaceOnUse"
       id="linearGradient4108"
       xlink:href="#linearGradient6995-8"
       inkscape:collect="always" />
    <marker
       style="overflow:visible"
       id="TriangleOutM-8"
       refX="0"
       refY="0"
       orient="auto"
       inkscape:stockid="TriangleOutM">
      <path
         transform="scale(0.4,0.4)"
         style="fill:#000000;fill-opacity:1;fill-rule:evenodd;stroke:#000000;stroke-width:1pt;stroke-opacity:1"
         d="m 5.77,0 -8.65,5 0,-10 8.65,5 z"
         id="path4401-1"
         inkscape:connector-curvature="0" />
    </marker>
    <marker
       inkscape:stockid="TriangleInMA0"
       orient="auto"
       refY="0"
       refX="0"
       id="TriangleInMA0-7"
       style="overflow:visible"
       inkscape:collect="always">
      <path
         inkscape:connector-curvature="0"
         id="path9110-0"
         d="m 5.77,0 -8.65,5 0,-10 8.65,5 z"
         style="fill:#000000;fill-opacity:1;fill-rule:evenodd;stroke:#000000;stroke-width:1pt;stroke-opacity:1"
         transform="scale(-0.4,-0.4)" />
    </marker>
    <marker
       style="overflow:visible"
       id="TriangleOutM-4"
       refX="0"
       refY="0"
       orient="auto"
       inkscape:stockid="TriangleOutM">
      <path
         transform="scale(0.4,0.4)"
         style="fill:#000000;fill-opacity:1;fill-rule:evenodd;stroke:#000000;stroke-width:1pt;stroke-opacity:1"
         d="m 5.77,0 -8.65,5 0,-10 8.65,5 z"
         id="path4401-0"
         inkscape:connector-curvature="0" />
    </marker>
    <marker
       style="overflow:visible"
       id="TriangleOutM-84"
       refX="0"
       refY="0"
       orient="auto"
       inkscape:stockid="TriangleOutM">
      <path
         transform="scale(0.4,0.4)"
         style="fill:#000000;fill-opacity:1;fill-rule:evenodd;stroke:#000000;stroke-width:1pt;stroke-opacity:1"
         d="m 5.77,0 -8.65,5 0,-10 8.65,5 z"
         id="path4401-16"
         inkscape:connector-curvature="0" />
    </marker>
  </defs>
  <metadata
     id="metadata4952">
    <rdf:RDF>
      <cc:Work
         rdf:about="">
        <dc:format>image/svg+xml</dc:format>
        <dc:type
           rdf:resource="http://purl.org/dc/dcmitype/StillImage" />
        <dc:title></dc:title>
        <cc:license
           rdf:resource="http://creativecommons.org/licenses/by-sa/3.0/" />
      </cc:Work>
      <cc:License
         rdf:about="http://creativecommons.org/licenses/by-sa/3.0/">
        <cc:permits
           rdf:resource="http://creativecommons.org/ns#Reproduction" />
        <cc:permits
           rdf:resource="http://creativecommons.org/ns#Distribution" />
        <cc:requires
           rdf:resource="http://creativecommons.org/ns#Notice" />
        <cc:requires
           rdf:resource="http://creativecommons.org/ns#Attribution" />
        <cc:permits
           rdf:resource="http://creativecommons.org/ns#DerivativeWorks" />
        <cc:requires
           rdf:resource="http://creativecommons.org/ns#ShareAlike" />
      </cc:License>
    </rdf:RDF>
  </metadata>
  <g
     transform="translate(4.4041786,-382.48145)"
     id="layer1"
     inkscape:groupmode="layer"
     inkscape:label="Capa 1">
    <g
       id="g4463">
      <rect
         ry="12.358366"
         rx="8.9313526"
         y="423.24225"
         x="366.39392"
         height="168.67496"
         width="277.0448"
         id="rect5184"
         style="fill:#96f005;fill-opacity:1;stroke:#000000;stroke-width:1.52159894;stroke-linecap:butt;stroke-linejoin:miter;stroke-miterlimit:0.40000045;stroke-dasharray:none;stroke-opacity:1" />
      <text
         sodipodi:linespacing="125%"
         id="text5186"
         y="488.87347"
         x="505.2923"
         style="font-style:normal;font-weight:bold;font-size:22px;line-height:125%;font-family:Sans;-inkscape-font-specification:'Sans Bold';text-align:center;letter-spacing:0px;word-spacing:0px;text-anchor:middle;display:inline;fill:#000000;fill-opacity:1;stroke:none"
         xml:space="preserve"><tspan
           id="tspan5188"
           y="488.87347"
           x="505.2923"
           sodipodi:role="line">dbus-daemon</tspan><tspan
           id="tspan4461"
           y="516.37347"
           x="505.2923"
           sodipodi:role="line">Process</tspan></text>
    </g>
    <g
       id="g4360">
      <rect
         style="fill:#e6e6e6;fill-opacity:1;stroke:#000000;stroke-width:1.52159894;stroke-linecap:butt;stroke-linejoin:miter;stroke-miterlimit:0.40000045;stroke-dasharray:none;stroke-opacity:1"
         id="rect5576"
         width="277.0448"
         height="168.67496"
         x="46.393913"
         y="423.24225"
         rx="8.9313526"
         ry="12.358366" />
      <text
         xml:space="preserve"
         style="font-style:normal;font-weight:bold;font-size:22px;line-height:125%;font-family:Sans;-inkscape-font-specification:'Sans Bold';text-align:center;letter-spacing:0px;word-spacing:0px;text-anchor:middle;display:inline;fill:#000000;fill-opacity:1;stroke:none"
         x="183.95488"
         y="488.87347"
         id="text3022"
         sodipodi:linespacing="125%"><tspan
           sodipodi:role="line"
           x="183.95488"
           y="488.87347"
           id="tspan3026">Process A</tspan></text>
    </g>
    <text
       xml:space="preserve"
       style="font-style:normal;font-variant:normal;font-weight:normal;font-stretch:normal;font-size:12px;line-height:125%;font-family:Sans;-inkscape-font-specification:Sans;text-align:start;letter-spacing:0px;word-spacing:0px;writing-mode:lr-tb;text-anchor:start;fill:#000000;fill-opacity:1;stroke:none"
       x="29.651905"
       y="835.83344"
       id="text3137"
       sodipodi:linespacing="125%"><tspan
         sodipodi:role="line"
         id="tspan3139"
         x="29.651905"
         y="835.83344">© 2015 Javier Cantero - this work is under the Creative Commons Attribution ShareAlike 4.0 license</tspan></text>
    <g
       id="g4365"
       transform="translate(-7.5504051e-6,0)">
      <rect
         ry="12.358366"
         rx="8.9313526"
         y="423.24225"
         x="686.39392"
         height="168.67496"
         width="277.0448"
         id="rect5162"
         style="fill:#e6e6e6;fill-opacity:1;stroke:#000000;stroke-width:1.52159894;stroke-linecap:butt;stroke-linejoin:miter;stroke-miterlimit:0.40000045;stroke-dasharray:none;stroke-opacity:1" />
      <text
         xml:space="preserve"
         style="font-style:normal;font-weight:bold;font-size:22px;line-height:125%;font-family:Sans;-inkscape-font-specification:'Sans Bold';text-align:center;letter-spacing:0px;word-spacing:0px;text-anchor:middle;display:inline;fill:#000000;fill-opacity:1;stroke:none"
         x="824.67462"
         y="488.87347"
         id="text3022-9"
         sodipodi:linespacing="125%"><tspan
           sodipodi:role="line"
           x="824.67462"
           y="488.87347"
           id="tspan3026-7">Process B</tspan></text>
    </g>
    <path
       style="opacity:1;fill:#96f005;fill-opacity:0.78431373;stroke:#007a00;stroke-width:3;stroke-linecap:butt;stroke-linejoin:miter;stroke-miterlimit:4;stroke-dasharray:none;stroke-dashoffset:0;stroke-opacity:1"
       d="m 111.29603,541.09043 791.8528,0 -54.69175,57.86204 -680.32643,0 z"
       id="rect4199"
       inkscape:connector-curvature="0"
       sodipodi:nodetypes="ccccc" />
    <g
       id="g4381"
       transform="translate(-6.4285214,11.891316)">
      <rect
         style="fill:#40d450;fill-opacity:1;stroke:none"
         id="rect10997-4"
         width="155.00002"
         height="40"
         x="705.79395"
         y="535.16107"
         ry="6.7472343" />
      <text
         sodipodi:linespacing="125%"
         id="text4084-3"
         y="563.36273"
         x="782.89648"
         style="font-style:normal;font-variant:normal;font-weight:bold;font-stretch:normal;font-size:22px;line-height:125%;font-family:Sans;-inkscape-font-specification:'Sans Bold';text-align:center;letter-spacing:0px;word-spacing:0px;writing-mode:lr-tb;text-anchor:middle;fill:#000000;fill-opacity:1;stroke:none"
         xml:space="preserve"><tspan
           y="563.36273"
           x="782.89648"
           id="tspan4086-4"
           sodipodi:role="line">libdbus</tspan></text>
    </g>
    <g
       id="g4386"
       transform="translate(-543.57142,11.891316)">
      <rect
         ry="6.7472343"
         y="535.16107"
         x="705.79395"
         height="40"
         width="155.00002"
         id="rect4388"
         style="fill:#40d450;fill-opacity:1;stroke:none" />
      <text
         xml:space="preserve"
         style="font-style:normal;font-variant:normal;font-weight:bold;font-stretch:normal;font-size:22px;line-height:125%;font-family:Sans;-inkscape-font-specification:'Sans Bold';text-align:center;letter-spacing:0px;word-spacing:0px;writing-mode:lr-tb;text-anchor:middle;fill:#000000;fill-opacity:1;stroke:none"
         x="782.89648"
         y="563.36273"
         id="text4390"
         sodipodi:linespacing="125%"><tspan
           sodipodi:role="line"
           id="tspan4392"
           x="782.89648"
           y="563.36273">libdbus</tspan></text>
    </g>
    <g
       id="g9073">
      <rect
         style="fill:url(#linearGradient4108);fill-opacity:1;stroke-width:3;stroke-linecap:butt;stroke-linejoin:round;stroke-miterlimit:4;stroke-dasharray:none"
         id="rect4955-6"
         width="957.85712"
         height="130.00002"
         x="25.595821"
         y="679.15332"
         rx="19.254225"
         ry="0" />
      <text
         xml:space="preserve"
         style="font-style:normal;font-variant:normal;font-weight:bold;font-stretch:normal;font-size:16px;line-height:125%;font-family:Sans;-inkscape-font-specification:'Sans Bold';text-align:center;letter-spacing:0px;word-spacing:0px;writing-mode:lr-tb;text-anchor:middle;display:inline;fill:#000000;fill-opacity:1;stroke:none"
         x="105.59582"
         y="669.15332"
         id="text3864-4-2"
         sodipodi:linespacing="125%"><tspan
           sodipodi:role="line"
           x="105.59582"
           y="669.15332"
           id="tspan3872-0-6">User space</tspan></text>
      <text
         xml:space="preserve"
         style="font-style:normal;font-variant:normal;font-weight:bold;font-stretch:normal;font-size:16px;line-height:125%;font-family:Sans;-inkscape-font-specification:'Sans Bold';text-align:center;letter-spacing:0px;word-spacing:0px;writing-mode:lr-tb;text-anchor:middle;display:inline;fill:#ffffff;fill-opacity:1;stroke:none"
         x="95.595818"
         y="699.15332"
         id="text3864-4"
         sodipodi:linespacing="125%"><tspan
           sodipodi:role="line"
           x="95.595818"
           y="699.15332"
           id="tspan3872-0">Kernel space</tspan></text>
      <g
         id="g9068">
        <rect
           ry="5.6680837"
           rx="11.457771"
           y="685.94897"
           x="223.65109"
           height="73.571465"
           width="570.00006"
           id="rect4955-6-9"
           style="fill:#e85050;fill-opacity:1;stroke-width:3;stroke-linecap:butt;stroke-linejoin:round;stroke-miterlimit:4;stroke-dasharray:none" />
        <text
           xml:space="preserve"
           style="font-style:normal;font-variant:normal;font-weight:bold;font-stretch:normal;font-size:25px;line-height:125%;font-family:Sans;-inkscape-font-specification:'Sans, Bold';text-align:center;letter-spacing:0px;word-spacing:0px;writing-mode:lr-tb;text-anchor:middle;fill:#ffffff;fill-opacity:1;stroke:none"
           x="507.79663"
           y="732.05475"
           id="text4127"
           sodipodi:linespacing="125%"><tspan
             sodipodi:role="line"
             id="tspan4129"
             x="507.79663"
             y="732.05475">Unix domain Socket</tspan></text>
      </g>
    </g>
    <path
       sodipodi:nodetypes="cc"
       inkscape:connector-curvature="0"
       inkscape:connector-type="orthogonal"
       id="path6662"
       d="m 239.72253,593.02931 0,86.12723"
       style="fill:none;fill-opacity:1;stroke:#000000;stroke-width:2.19400001;stroke-linecap:butt;stroke-linejoin:miter;stroke-miterlimit:4;stroke-dasharray:none;stroke-opacity:1;marker-start:url(#TriangleInMA0);marker-end:url(#TriangleOutM)" />
    <path
       sodipodi:nodetypes="cc"
       inkscape:connector-curvature="0"
       inkscape:connector-type="orthogonal"
       id="path6662-8"
       d="m 776.86543,593.02931 0,85.47789"
       style="fill:none;fill-opacity:1;stroke:#000000;stroke-width:2.19400001;stroke-linecap:butt;stroke-linejoin:miter;stroke-miterlimit:4;stroke-dasharray:none;stroke-opacity:1;marker-start:url(#marker4394);marker-end:url(#TriangleOutM-8)" />
    <g
       id="g9017">
      <path
         inkscape:connector-curvature="0"
         id="path4753"
         d="m 248.61056,597.81235 0,102.39092 249.01959,0 0,-102.39092"
         style="fill:none;fill-rule:evenodd;stroke:#96f005;stroke-width:3.99999976;stroke-linecap:butt;stroke-linejoin:miter;stroke-miterlimit:4;stroke-dasharray:3.99999995, 3.99999995;stroke-dashoffset:0;stroke-opacity:1" />
      <text
         sodipodi:linespacing="125%"
         id="text5179"
         y="694.66443"
         x="373.07764"
         style="font-style:normal;font-variant:normal;font-weight:bold;font-stretch:normal;font-size:12.5px;line-height:125%;font-family:Sans;-inkscape-font-specification:'Sans, Bold';text-align:center;letter-spacing:0px;word-spacing:0px;writing-mode:lr-tb;text-anchor:middle;fill:#96f005;fill-opacity:1;stroke:none;stroke-width:1px;stroke-linecap:butt;stroke-linejoin:miter;stroke-opacity:1"
         xml:space="preserve"><tspan
           y="694.66443"
           x="373.07764"
           id="tspan5181"
           sodipodi:role="line">D-Bus wire protocol</tspan></text>
    </g>
    <g
       id="g5208"
       transform="translate(-1.0412022,10.462727)">
      <rect
         ry="6.7472343"
         y="536.58966"
         x="384.20206"
         height="40"
         width="247.85716"
         id="rect5192"
         style="fill:#40d450;fill-opacity:1;stroke:none" />
      <text
         xml:space="preserve"
         style="font-style:normal;font-variant:normal;font-weight:bold;font-stretch:normal;font-size:22px;line-height:125%;font-family:Sans;-inkscape-font-specification:'Sans Bold';text-align:center;letter-spacing:0px;word-spacing:0px;writing-mode:lr-tb;text-anchor:middle;fill:#000000;fill-opacity:1;stroke:none"
         x="507.73318"
         y="564.79132"
         id="text5194"
         sodipodi:linespacing="125%"><tspan
           sodipodi:role="line"
           id="tspan5196"
           x="507.73318"
           y="564.79132">libdbus</tspan></text>
    </g>
    <path
       sodipodi:nodetypes="cc"
       inkscape:connector-curvature="0"
       inkscape:connector-type="orthogonal"
       id="path6662-7"
       d="m 507.08944,593.02931 0,86.12723"
       style="fill:none;fill-opacity:1;stroke:#000000;stroke-width:2.19400001;stroke-linecap:butt;stroke-linejoin:miter;stroke-miterlimit:4;stroke-dasharray:none;stroke-opacity:1;marker-start:url(#TriangleInMA0-7);marker-end:url(#TriangleOutM-4)" />
    <g
       id="g9022"
       transform="translate(270,0)">
      <path
         style="fill:none;fill-rule:evenodd;stroke:#96f005;stroke-width:3.99999976;stroke-linecap:butt;stroke-linejoin:miter;stroke-miterlimit:4;stroke-dasharray:3.99999995, 3.99999995;stroke-dashoffset:0;stroke-opacity:1"
         d="m 248.61056,597.81235 0,102.39092 249.01959,0 0,-102.39092"
         id="path9024"
         inkscape:connector-curvature="0" />
      <text
         xml:space="preserve"
         style="font-style:normal;font-variant:normal;font-weight:bold;font-stretch:normal;font-size:12.5px;line-height:125%;font-family:Sans;-inkscape-font-specification:'Sans, Bold';text-align:center;letter-spacing:0px;word-spacing:0px;writing-mode:lr-tb;text-anchor:middle;fill:#96f005;fill-opacity:1;stroke:none;stroke-width:1px;stroke-linecap:butt;stroke-linejoin:miter;stroke-opacity:1"
         x="373.07764"
         y="694.66443"
         id="text9026"
         sodipodi:linespacing="125%"><tspan
           sodipodi:role="line"
           id="tspan9028"
           x="373.07764"
           y="694.66443">D-Bus wire protocol</tspan></text>
    </g>
  </g>
</svg>
