<?xml version="1.0" encoding="UTF-8" standalone="no"?>
<!-- Created with Inkscape (http://www.inkscape.org/) -->

<svg
   xmlns:osb="http://www.openswatchbook.org/uri/2009/osb"
   xmlns:dc="http://purl.org/dc/elements/1.1/"
   xmlns:cc="http://creativecommons.org/ns#"
   xmlns:rdf="http://www.w3.org/1999/02/22-rdf-syntax-ns#"
   xmlns:svg="http://www.w3.org/2000/svg"
   xmlns="http://www.w3.org/2000/svg"
   xmlns:xlink="http://www.w3.org/1999/xlink"
   xmlns:sodipodi="http://sodipodi.sourceforge.net/DTD/sodipodi-0.dtd"
   xmlns:inkscape="http://www.inkscape.org/namespaces/inkscape"
   width="821.3725"
   height="539.10095"
   id="svg4947"
   version="1.1"
   inkscape:version="0.91 r13725"
   sodipodi:docname="D-Bus method invocation.svg">
  <sodipodi:namedview
     id="base"
     pagecolor="#ffffff"
     bordercolor="#666666"
     borderopacity="1.0"
     inkscape:pageopacity="0.0"
     inkscape:pageshadow="2"
     inkscape:zoom="1.7050658"
     inkscape:cx="395.68624"
     inkscape:cy="329.92898"
     inkscape:document-units="px"
     inkscape:current-layer="layer1"
     showgrid="false"
     inkscape:window-width="1920"
     inkscape:window-height="1027"
     inkscape:window-x="0"
     inkscape:window-y="31"
     inkscape:window-maximized="1"
     inkscape:connector-spacing="3"
     showguides="false"
     fit-margin-top="30"
     fit-margin-left="20"
     fit-margin-right="50"
     fit-margin-bottom="10"
     inkscape:snap-text-baseline="true"
     inkscape:snap-grids="true"
     inkscape:snap-to-guides="false"
     inkscape:snap-global="false"
     inkscape:snap-bbox="false"
     units="px">
    <inkscape:grid
       id="grid3032"
       type="xygrid"
       empspacing="5"
       visible="true"
       enabled="true"
       snapvisiblegridlinesonly="true"
       originx="-69.384674"
       originy="-112.45044" />
  </sodipodi:namedview>
  <defs
     id="defs4949">
    <marker
       style="overflow:visible"
       id="marker5367"
       refX="0"
       refY="0"
       orient="auto"
       inkscape:stockid="Arrow2Send">
      <path
         inkscape:connector-curvature="0"
         transform="matrix(-0.3,0,0,-0.3,0.69,0)"
         d="M 8.7185878,4.0337352 -2.2072895,0.01601326 8.7185884,-4.0017078 c -1.7454984,2.3720609 -1.7354408,5.6174519 -6e-7,8.035443 z"
         style="fill:#ff00ff;fill-opacity:1;fill-rule:evenodd;stroke:#ff00ff;stroke-width:0.625;stroke-linejoin:round;stroke-opacity:1"
         id="path5369" />
    </marker>
    <marker
       inkscape:stockid="Arrow1Mstart"
       orient="auto"
       refY="0"
       refX="0"
       id="Arrow1Mstart"
       style="overflow:visible"
       inkscape:isstock="true">
      <path
         id="path4562"
         d="M 0,0 5,-5 -12.5,0 5,5 0,0 Z"
         style="fill:#000000;fill-opacity:1;fill-rule:evenodd;stroke:#000000;stroke-width:1pt;stroke-opacity:1"
         transform="matrix(0.4,0,0,0.4,4,0)"
         inkscape:connector-curvature="0" />
    </marker>
    <marker
       inkscape:stockid="Arrow2Mend"
       orient="auto"
       refY="0"
       refX="0"
       id="Arrow2Mend"
       style="overflow:visible">
      <path
         id="path4283"
         style="fill:#800080;fill-opacity:1;fill-rule:evenodd;stroke:#800080;stroke-width:0.625;stroke-linejoin:round;stroke-opacity:1"
         d="M 8.7185878,4.0337352 -2.2072895,0.01601326 8.7185884,-4.0017078 c -1.7454984,2.3720609 -1.7354408,5.6174519 -6e-7,8.035443 z"
         transform="scale(-0.6,-0.6)"
         inkscape:connector-curvature="0" />
    </marker>
    <marker
       inkscape:stockid="Arrow2Send"
       orient="auto"
       refY="0"
       refX="0"
       id="Arrow2Send"
       style="overflow:visible"
       inkscape:collect="always">
      <path
         id="path4289"
         style="fill:#800080;fill-opacity:1;fill-rule:evenodd;stroke:#800080;stroke-width:0.625;stroke-linejoin:round;stroke-opacity:1"
         d="M 8.7185878,4.0337352 -2.2072895,0.01601326 8.7185884,-4.0017078 c -1.7454984,2.3720609 -1.7354408,5.6174519 -6e-7,8.035443 z"
         transform="matrix(-0.3,0,0,-0.3,0.69,0)"
         inkscape:connector-curvature="0" />
    </marker>
    <marker
       style="overflow:visible"
       id="TriangleOutS"
       refX="0"
       refY="0"
       orient="auto"
       inkscape:stockid="TriangleOutS">
      <path
         transform="scale(0.2,0.2)"
         style="fill-rule:evenodd;stroke:#000000;stroke-width:1pt"
         d="m 5.77,0 -8.65,5 0,-10 8.65,5 z"
         id="path4404"
         inkscape:connector-curvature="0" />
    </marker>
    <marker
       style="overflow:visible"
       id="TriangleOutL"
       refX="0"
       refY="0"
       orient="auto"
       inkscape:stockid="TriangleOutL">
      <path
         transform="scale(0.8,0.8)"
         style="fill-rule:evenodd;stroke:#000000;stroke-width:1pt"
         d="m 5.77,0 -8.65,5 0,-10 8.65,5 z"
         id="path4398"
         inkscape:connector-curvature="0" />
    </marker>
    <marker
       style="overflow:visible"
       id="TriangleOutM"
       refX="0"
       refY="0"
       orient="auto"
       inkscape:stockid="TriangleOutM">
      <path
         transform="scale(0.4,0.4)"
         style="fill-rule:evenodd;stroke:#000000;stroke-width:1pt"
         d="m 5.77,0 -8.65,5 0,-10 8.65,5 z"
         id="path4401"
         inkscape:connector-curvature="0" />
    </marker>
    <marker
       style="overflow:visible"
       id="Arrow1Mend"
       refX="0"
       refY="0"
       orient="auto"
       inkscape:stockid="Arrow1Mend">
      <path
         transform="matrix(-0.4,0,0,-0.4,-4,0)"
         style="fill:#000000;fill-opacity:1;fill-rule:evenodd;stroke:#000000;stroke-width:1pt;stroke-opacity:1"
         d="M 0,0 5,-5 -12.5,0 5,5 0,0 Z"
         id="path4265"
         inkscape:connector-curvature="0" />
    </marker>
    <linearGradient
       id="linearGradient7014"
       inkscape:collect="always">
      <stop
         id="stop7016"
         offset="0"
         style="stop-color:#000000;stop-opacity:1;" />
      <stop
         id="stop7018"
         offset="1"
         style="stop-color:#000000;stop-opacity:0;" />
    </linearGradient>
    <inkscape:perspective
       id="perspective6974"
       inkscape:persp3d-origin="640 : 240 : 1"
       inkscape:vp_z="720.37549 : 83.218206 : 1"
       inkscape:vp_y="0 : 1000 : 0"
       inkscape:vp_x="517.35676 : 277.22551 : 1"
       sodipodi:type="inkscape:persp3d" />
    <marker
       style="overflow:visible"
       id="Arrow2Lend"
       refX="0"
       refY="0"
       orient="auto"
       inkscape:stockid="Arrow2Lend">
      <path
         transform="matrix(-1.1,0,0,-1.1,-1.1,0)"
         d="M 8.7185878,4.0337352 -2.2072895,0.01601326 8.7185884,-4.0017078 c -1.7454984,2.3720609 -1.7354408,5.6174519 -6e-7,8.035443 z"
         style="fill-rule:evenodd;stroke-width:0.625;stroke-linejoin:round"
         id="path5693"
         inkscape:connector-curvature="0" />
    </marker>
    <marker
       style="overflow:visible"
       id="Arrow2Lstart"
       refX="0"
       refY="0"
       orient="auto"
       inkscape:stockid="Arrow2Lstart">
      <path
         transform="matrix(1.1,0,0,1.1,1.1,0)"
         d="M 8.7185878,4.0337352 -2.2072895,0.01601326 8.7185884,-4.0017078 c -1.7454984,2.3720609 -1.7354408,5.6174519 -6e-7,8.035443 z"
         style="fill-rule:evenodd;stroke-width:0.625;stroke-linejoin:round"
         id="path5690"
         inkscape:connector-curvature="0" />
    </marker>
    <marker
       style="overflow:visible"
       id="Arrow1Lstart"
       refX="0"
       refY="0"
       orient="auto"
       inkscape:stockid="Arrow1Lstart">
      <path
         transform="matrix(0.8,0,0,0.8,10,0)"
         style="fill-rule:evenodd;stroke:#000000;stroke-width:1pt"
         d="M 0,0 5,-5 -12.5,0 5,5 0,0 Z"
         id="path5672"
         inkscape:connector-curvature="0" />
    </marker>
    <linearGradient
       osb:paint="solid"
       id="linearGradient5586">
      <stop
         id="stop5588"
         offset="0"
         style="stop-color:#000000;stop-opacity:1;" />
    </linearGradient>
    <marker
       style="overflow:visible"
       id="Arrow2Lend-3"
       refX="0"
       refY="0"
       orient="auto"
       inkscape:stockid="Arrow2Lend">
      <path
         transform="matrix(-1.1,0,0,-1.1,-1.1,0)"
         d="M 8.7185878,4.0337352 -2.2072895,0.01601326 8.7185884,-4.0017078 c -1.7454984,2.3720609 -1.7354408,5.6174519 -6e-7,8.035443 z"
         style="fill-rule:evenodd;stroke-width:0.625;stroke-linejoin:round"
         id="path5693-5"
         inkscape:connector-curvature="0" />
    </marker>
    <marker
       style="overflow:visible"
       id="TriangleInSd4J"
       refX="0"
       refY="0"
       orient="auto"
       inkscape:stockid="TriangleInSd4J">
      <path
         inkscape:connector-curvature="0"
         transform="scale(-0.2,-0.2)"
         style="fill:#0197fd;fill-rule:evenodd;stroke:#0197fd;stroke-width:1pt"
         d="m 5.77,0 -8.65,5 0,-10 8.65,5 z"
         id="path3660" />
    </marker>
    <marker
       style="overflow:visible"
       id="TriangleOutScj1"
       refX="0"
       refY="0"
       orient="auto"
       inkscape:stockid="TriangleOutScj1">
      <path
         inkscape:connector-curvature="0"
         transform="scale(0.2,0.2)"
         style="fill:#0197fd;fill-rule:evenodd;stroke:#0197fd;stroke-width:1pt"
         d="m 5.77,0 -8.65,5 0,-10 8.65,5 z"
         id="path3663" />
    </marker>
    <linearGradient
       gradientUnits="userSpaceOnUse"
       y2="950.33679"
       x2="517.43854"
       y1="982.66162"
       x1="481.60236"
       id="linearGradient7020"
       xlink:href="#linearGradient7014"
       inkscape:collect="always" />
    <marker
       style="overflow:visible"
       id="TriangleOutScj1N"
       refX="0"
       refY="0"
       orient="auto"
       inkscape:stockid="TriangleOutScj1N">
      <path
         inkscape:connector-curvature="0"
         transform="scale(0.2,0.2)"
         style="fill:#4040fd;fill-rule:evenodd;stroke:#4040fd;stroke-width:1pt"
         d="m 5.77,0 -8.65,5 0,-10 8.65,5 z"
         id="path3050" />
    </marker>
    <marker
       style="overflow:visible"
       id="TriangleOutScj1NV"
       refX="0"
       refY="0"
       orient="auto"
       inkscape:stockid="TriangleOutScj1NV">
      <path
         inkscape:connector-curvature="0"
         transform="scale(0.2,0.2)"
         style="fill:#4040ff;fill-rule:evenodd;stroke:#4040ff;stroke-width:1pt"
         d="m 5.77,0 -8.65,5 0,-10 8.65,5 z"
         id="path3964" />
    </marker>
    <marker
       style="overflow:visible"
       id="TriangleOutS1"
       refX="0"
       refY="0"
       orient="auto"
       inkscape:stockid="TriangleOutS1">
      <path
         transform="scale(0.2,0.2)"
         style="fill:#ffac00;fill-rule:evenodd;stroke:#ffac00;stroke-width:1pt"
         d="m 5.77,0 -8.65,5 0,-10 8.65,5 z"
         id="path5620"
         inkscape:connector-curvature="0" />
    </marker>
    <marker
       style="overflow:visible"
       id="TriangleOutMy"
       refX="0"
       refY="0"
       orient="auto"
       inkscape:stockid="TriangleOutMy">
      <path
         transform="scale(0.4,0.4)"
         style="fill:#ffac00;fill-rule:evenodd;stroke:#ffac00;stroke-width:1pt"
         d="m 5.77,0 -8.65,5 0,-10 8.65,5 z"
         id="path5989"
         inkscape:connector-curvature="0" />
    </marker>
    <marker
       style="overflow:visible"
       id="TriangleOutMp"
       refX="0"
       refY="0"
       orient="auto"
       inkscape:stockid="TriangleOutMp">
      <path
         transform="scale(0.4,0.4)"
         style="fill:#ffac00;fill-rule:evenodd;stroke:#ffac00;stroke-width:1pt"
         d="m 5.77,0 -8.65,5 0,-10 8.65,5 z"
         id="path6364"
         inkscape:connector-curvature="0" />
    </marker>
    <marker
       style="overflow:visible"
       id="TriangleOutMO"
       refX="0"
       refY="0"
       orient="auto"
       inkscape:stockid="TriangleOutMO">
      <path
         transform="scale(0.4,0.4)"
         style="fill:#ffac00;fill-rule:evenodd;stroke:#ffac00;stroke-width:1pt"
         d="m 5.77,0 -8.65,5 0,-10 8.65,5 z"
         id="path6745"
         inkscape:connector-curvature="0" />
    </marker>
    <linearGradient
       y2="835.93359"
       x2="594.92047"
       y1="707.36218"
       x1="595.07965"
       gradientTransform="matrix(0.99140792,0,0,0.99999998,-1.2499063,12.14285)"
       gradientUnits="userSpaceOnUse"
       id="linearGradient7138-0"
       xlink:href="#linearGradient6995-8"
       inkscape:collect="always" />
    <linearGradient
       id="linearGradient6995-8"
       inkscape:collect="always">
      <stop
         id="stop6997-6"
         offset="0"
         style="stop-color:#c05050;stop-opacity:1;" />
      <stop
         id="stop6999-7"
         offset="1"
         style="stop-color:#c05050;stop-opacity:0;" />
    </linearGradient>
    <marker
       style="overflow:visible"
       id="TriangleOutSH"
       refX="0"
       refY="0"
       orient="auto"
       inkscape:stockid="TriangleOutSH">
      <path
         transform="scale(0.2,0.2)"
         style="fill:#e85050;fill-rule:evenodd;stroke:#e85050;stroke-width:1pt"
         d="m 5.77,0 -8.65,5 0,-10 8.65,5 z"
         id="path8099"
         inkscape:connector-curvature="0" />
    </marker>
    <marker
       style="overflow:visible"
       id="TriangleOutSS"
       refX="0"
       refY="0"
       orient="auto"
       inkscape:stockid="TriangleOutSS">
      <path
         transform="scale(0.2,0.2)"
         style="fill:#e85050;fill-rule:evenodd;stroke:#e85050;stroke-width:1pt"
         d="m 5.77,0 -8.65,5 0,-10 8.65,5 z"
         id="path10749"
         inkscape:connector-curvature="0" />
    </marker>
    <marker
       style="overflow:visible"
       id="TriangleOutSz"
       refX="0"
       refY="0"
       orient="auto"
       inkscape:stockid="TriangleOutSz">
      <path
         transform="scale(0.2,0.2)"
         style="fill:#000000;fill-rule:evenodd;stroke:#000000;stroke-width:1pt"
         d="m 5.77,0 -8.65,5 0,-10 8.65,5 z"
         id="path11296"
         inkscape:connector-curvature="0" />
    </marker>
  </defs>
  <metadata
     id="metadata4952">
    <rdf:RDF>
      <cc:Work
         rdf:about="">
        <dc:format>image/svg+xml</dc:format>
        <dc:type
           rdf:resource="http://purl.org/dc/dcmitype/StillImage" />
        <dc:title></dc:title>
      </cc:Work>
    </rdf:RDF>
  </metadata>
  <g
     transform="translate(-69.384674,-400.81088)"
     id="layer1"
     inkscape:groupmode="layer"
     inkscape:label="Capa 1">
    <text
       xml:space="preserve"
       style="font-style:normal;font-variant:normal;font-weight:normal;font-stretch:normal;font-size:12px;line-height:125%;font-family:Sans;-inkscape-font-specification:Sans;text-align:start;letter-spacing:0px;word-spacing:0px;writing-mode:lr-tb;text-anchor:start;fill:#000000;fill-opacity:1;stroke:none"
       x="87.726471"
       y="927.50952"
       id="text3137"
       sodipodi:linespacing="125%"><tspan
         sodipodi:role="line"
         id="tspan3139"
         x="87.726471"
         y="927.50952">© 2015 Javier Cantero - this work is under the Creative Commons Attribution ShareAlike 4.0 license</tspan></text>
    <g
       id="g4411"
       transform="translate(5e-5,-2.6796164)">
      <rect
         ry="8.7620497"
         rx="6.587007"
         y="586.50635"
         x="127.30262"
         height="119.59011"
         width="204.32472"
         id="rect4275"
         style="fill:#e6e6e6;fill-opacity:1;stroke:#000000;stroke-width:1.52159882;stroke-linecap:butt;stroke-linejoin:miter;stroke-miterlimit:0.40000045;stroke-dasharray:none;stroke-opacity:1" />
      <text
         sodipodi:linespacing="125%"
         id="text4277"
         y="626.57007"
         x="229.4435"
         style="font-style:normal;font-weight:bold;font-size:22px;line-height:125%;font-family:Sans;-inkscape-font-specification:'Sans Bold';text-align:center;letter-spacing:0px;word-spacing:0px;text-anchor:middle;display:inline;fill:#000000;fill-opacity:1;stroke:none"
         xml:space="preserve"><tspan
           id="tspan4356"
           y="626.57007"
           x="229.4435"
           sodipodi:role="line">Client process</tspan></text>
    </g>
    <path
       style="fill:none;fill-rule:evenodd;stroke:#000000;stroke-width:1px;stroke-linecap:butt;stroke-linejoin:miter;stroke-opacity:1"
       d="m 229.77402,704.18095 -0.61798,96.40553"
       id="path4410"
       inkscape:connector-type="polyline"
       inkscape:connector-curvature="0" />
    <g
       id="g4416"
       transform="translate(-15.449554,146.62354)">
      <rect
         ry="10.844841"
         rx="7.6628242"
         y="436.95416"
         x="584.67969"
         height="148.0174"
         width="237.69588"
         id="rect4258"
         style="fill:#e6e6e6;fill-opacity:1;stroke:#000000;stroke-width:1.52159882;stroke-linecap:butt;stroke-linejoin:miter;stroke-miterlimit:0.40000045;stroke-dasharray:none;stroke-opacity:1" />
      <text
         sodipodi:linespacing="125%"
         id="text4260"
         y="475.15564"
         x="703.26447"
         style="font-style:normal;font-weight:bold;font-size:22px;line-height:125%;font-family:Sans;-inkscape-font-specification:'Sans Bold';text-align:center;letter-spacing:0px;word-spacing:0px;text-anchor:middle;display:inline;fill:#000000;fill-opacity:1;stroke:none"
         xml:space="preserve"><tspan
           id="tspan4372"
           y="475.15564"
           x="703.26447"
           sodipodi:role="line">Service process</tspan></text>
    </g>
    <path
       style="fill:none;fill-rule:evenodd;stroke:#000000;stroke-width:1px;stroke-linecap:butt;stroke-linejoin:miter;stroke-opacity:1"
       d="m 690.24107,732.36054 0.61799,67.95861"
       id="path4416"
       inkscape:connector-type="polyline"
       inkscape:connector-curvature="0" />
    <g
       id="g6604">
      <path
         sodipodi:nodetypes="ccccc"
         inkscape:connector-curvature="0"
         id="rect4199"
         d="m 128.34918,801.075 710.23896,0.56497 -32.5895,38.12146 -639.82654,0.0963 z"
         style="opacity:1;fill:#96f005;fill-opacity:1;stroke:#000000;stroke-width:2;stroke-linecap:butt;stroke-linejoin:miter;stroke-miterlimit:4;stroke-dasharray:none;stroke-dashoffset:0;stroke-opacity:1" />
      <text
         sodipodi:linespacing="125%"
         id="text4356"
         y="832.89429"
         x="482.88278"
         style="font-style:normal;font-variant:normal;font-weight:bold;font-stretch:normal;font-size:20px;line-height:125%;font-family:Sans;-inkscape-font-specification:'Sans, Bold';text-align:center;letter-spacing:0px;word-spacing:0px;writing-mode:lr-tb;text-anchor:middle;fill:#000000;fill-opacity:1;stroke:none;stroke-width:1px;stroke-linecap:butt;stroke-linejoin:miter;stroke-opacity:1"
         xml:space="preserve"><tspan
           y="832.89429"
           x="482.88278"
           id="tspan4358"
           sodipodi:role="line">D-Bus bus</tspan></text>
    </g>
    <text
       xml:space="preserve"
       style="font-style:normal;font-variant:normal;font-weight:bold;font-stretch:normal;font-size:12.5px;line-height:125%;font-family:Sans;-inkscape-font-specification:'Sans, Bold';text-align:center;letter-spacing:0px;word-spacing:0px;writing-mode:lr-tb;text-anchor:middle;fill:#0000ff;fill-opacity:1;stroke:none;stroke-width:1px;stroke-linecap:butt;stroke-linejoin:miter;stroke-opacity:1"
       x="267.13959"
       y="793.05579"
       id="text4437"
       sodipodi:linespacing="125%"><tspan
         sodipodi:role="line"
         id="tspan4439"
         x="267.13959"
         y="793.05579">:1.7002</tspan></text>
    <text
       sodipodi:linespacing="125%"
       id="text4441"
       y="776.76398"
       x="704.05438"
       style="font-style:normal;font-variant:normal;font-weight:bold;font-stretch:normal;font-size:12.5px;line-height:125%;font-family:Sans;-inkscape-font-specification:'Sans, Bold';text-align:start;letter-spacing:0px;word-spacing:0px;writing-mode:lr-tb;text-anchor:start;fill:#0000ff;fill-opacity:1;stroke:none;stroke-width:1px;stroke-linecap:butt;stroke-linejoin:miter;stroke-opacity:1"
       xml:space="preserve"><tspan
         y="776.76398"
         x="704.05438"
         id="tspan4443"
         sodipodi:role="line">:1.14</tspan><tspan
         y="792.38898"
         x="704.05438"
         sodipodi:role="line"
         id="tspan4445">org.example.foo</tspan></text>
    <text
       xml:space="preserve"
       style="font-style:normal;font-variant:normal;font-weight:bold;font-stretch:normal;font-size:22px;line-height:125%;font-family:Sans;-inkscape-font-specification:'Sans Bold';text-align:center;letter-spacing:0px;word-spacing:0px;writing-mode:lr-tb;text-anchor:middle;fill:#000000;fill-opacity:1;stroke:none;stroke-width:1px;stroke-linecap:butt;stroke-linejoin:miter;stroke-opacity:1"
       x="641.638"
       y="470.86185"
       id="text4469"
       sodipodi:linespacing="125%"><tspan
         sodipodi:role="line"
         id="tspan4471"
         x="641.638"
         y="470.86185" /></text>
    <g
       id="g5077">
      <rect
         ry="0"
         rx="0"
         y="431.31088"
         x="335.73584"
         height="111.23715"
         width="226.18222"
         id="rect4447"
         style="opacity:1;fill:#ffe680;fill-opacity:1;stroke:#000000;stroke-width:1;stroke-linecap:butt;stroke-linejoin:miter;stroke-miterlimit:4;stroke-dasharray:none;stroke-dashoffset:0;stroke-opacity:1" />
      <text
         sodipodi:linespacing="125%"
         id="text4465"
         y="454.79428"
         x="448.91171"
         style="font-style:normal;font-variant:normal;font-weight:bold;font-stretch:normal;font-size:12.5px;line-height:125%;font-family:'Courier 10 Pitch';-inkscape-font-specification:'Courier 10 Pitch, Bold';text-align:center;letter-spacing:0px;word-spacing:0px;writing-mode:lr-tb;text-anchor:middle;fill:#000000;fill-opacity:1;stroke:none;stroke-width:1px;stroke-linecap:butt;stroke-linejoin:miter;stroke-opacity:1"
         xml:space="preserve"><tspan
           y="454.79428"
           x="448.91171"
           id="tspan4467"
           sodipodi:role="line">org.example.FooIface</tspan></text>
      <text
         sodipodi:linespacing="125%"
         id="text4473"
         y="475.18774"
         x="374.45392"
         style="font-style:italic;font-variant:normal;font-weight:normal;font-stretch:normal;font-size:12.5px;line-height:125%;font-family:'Courier 10 Pitch';-inkscape-font-specification:'Courier 10 Pitch, Italic';text-align:start;letter-spacing:0px;word-spacing:0px;writing-mode:lr-tb;text-anchor:start;fill:#000000;fill-opacity:1;stroke:none;stroke-width:1px;stroke-linecap:butt;stroke-linejoin:miter;stroke-opacity:1"
         xml:space="preserve"><tspan
           y="475.18774"
           x="374.45392"
           id="tspan4475"
           sodipodi:role="line">method SetFoo(int)</tspan><tspan
           id="tspan4479"
           y="490.81274"
           x="374.45392"
           sodipodi:role="line">method GetFoo(): int</tspan><tspan
           id="tspan4477"
           y="506.43774"
           x="374.45392"
           sodipodi:role="line">signal EventFoo()</tspan></text>
    </g>
    <g
       id="g6945">
      <g
         id="g6940">
        <rect
           style="opacity:1;fill:#00ffff;fill-opacity:1;stroke:#000000;stroke-width:1;stroke-linecap:butt;stroke-linejoin:miter;stroke-miterlimit:4;stroke-dasharray:none;stroke-dashoffset:0;stroke-opacity:1"
           id="rect4518"
           width="142.75435"
           height="55.000587"
           x="609.50287"
           y="633.39166" />
        <text
           xml:space="preserve"
           style="font-style:normal;font-variant:normal;font-weight:normal;font-stretch:normal;font-size:12.5px;line-height:125%;font-family:Sans;-inkscape-font-specification:'Sans, Normal';text-align:center;letter-spacing:0px;word-spacing:0px;writing-mode:lr-tb;text-anchor:middle;fill:#000000;fill-opacity:1;stroke:none;stroke-width:1px;stroke-linecap:butt;stroke-linejoin:miter;stroke-opacity:1"
           x="680.22394"
           y="646.7146"
           id="text4520"
           sodipodi:linespacing="125%"><tspan
             sodipodi:role="line"
             id="tspan4522"
             x="680.22394"
             y="646.7146">/org/example/object1</tspan></text>
      </g>
      <text
         sodipodi:linespacing="125%"
         id="text4520-0"
         y="669.59332"
         x="668.7912"
         style="font-style:italic;font-variant:normal;font-weight:normal;font-stretch:normal;font-size:15px;line-height:125%;font-family:Sans;-inkscape-font-specification:'Sans, Italic';text-align:center;letter-spacing:0px;word-spacing:0px;writing-mode:lr-tb;text-anchor:middle;fill:#000000;fill-opacity:1;stroke:none;stroke-width:1px;stroke-linecap:butt;stroke-linejoin:miter;stroke-opacity:1"
         xml:space="preserve"><tspan
           y="669.59332"
           x="668.7912"
           id="tspan5086"
           sodipodi:role="line">SetFoo()</tspan></text>
    </g>
    <path
       style="fill:none;fill-rule:evenodd;stroke:#000000;stroke-width:1;stroke-linecap:butt;stroke-linejoin:miter;stroke-miterlimit:4;stroke-dasharray:3, 3;stroke-dashoffset:0;stroke-opacity:1;marker-end:url(#Arrow1Mend)"
       d="M 644.94929,633.39166 526.25674,542.54802"
       id="path4548"
       inkscape:connector-type="polyline"
       inkscape:connector-curvature="0"
       inkscape:connection-start="#rect4518" />
    <path
       style="fill:none;fill-rule:evenodd;stroke:#800080;stroke-width:3;stroke-linecap:butt;stroke-linejoin:round;stroke-miterlimit:4;stroke-dasharray:5.99999999, 3;stroke-dashoffset:0;stroke-opacity:1;marker-end:url(#Arrow2Send)"
       d="m 235.61173,704.35444 0,102.64087 448.05987,0 0,-101.16502 -92.74526,0 0,-41.72343 35.71946,0"
       id="path4360"
       inkscape:connector-curvature="0"
       sodipodi:nodetypes="ccccccc" />
    <path
       style="fill:none;fill-rule:evenodd;stroke:#ff00ff;stroke-width:3;stroke-linecap:butt;stroke-linejoin:round;stroke-miterlimit:4;stroke-dasharray:6.00000001, 3;stroke-dashoffset:0;stroke-opacity:1;marker-end:url(#marker5367)"
       d="m 705.2904,664.34673 20.39346,0 0,41.7232 -27.19129,0 0,106.48135 -473.99387,0 0,-108.53642"
       id="path5359"
       inkscape:connector-curvature="0"
       sodipodi:nodetypes="ccccccc" />
    <g
       id="g11799">
      <path
         sodipodi:nodetypes="ccccccc"
         inkscape:connector-curvature="0"
         id="rect11727"
         d="m 318.21379,798.73199 174.30901,0 6.7732,7.82593 -6.7732,7.82594 -174.30901,0 6.7732,-7.82594 z"
         style="opacity:1;fill:#ffffff;fill-opacity:1;stroke:#800080;stroke-width:1.79999995;stroke-linecap:butt;stroke-linejoin:miter;stroke-miterlimit:4;stroke-dasharray:none;stroke-dashoffset:0;stroke-opacity:1" />
      <text
         sodipodi:linespacing="125%"
         id="text8840"
         y="809.91431"
         x="409.82724"
         style="font-style:normal;font-variant:normal;font-weight:normal;font-stretch:normal;font-size:12.5px;line-height:125%;font-family:'Droid Sans Mono';-inkscape-font-specification:'Droid Sans Mono, Normal';text-align:center;letter-spacing:0px;word-spacing:0px;writing-mode:lr-tb;text-anchor:middle;fill:#800080;fill-opacity:1;stroke:none;stroke-width:1px;stroke-linecap:butt;stroke-linejoin:miter;stroke-opacity:1"
         xml:space="preserve"><tspan
           y="809.91431"
           x="409.82724"
           id="tspan8842"
           sodipodi:role="line">message request method</tspan></text>
    </g>
    <g
       id="g11786"
       transform="translate(28.185262,61.832784)">
      <path
         style="opacity:1;fill:#ffffff;fill-opacity:1;stroke:#ff00ff;stroke-width:1.79999995;stroke-linecap:butt;stroke-linejoin:miter;stroke-miterlimit:4;stroke-dasharray:none;stroke-dashoffset:0;stroke-opacity:1"
         d="m 515.94761,743.01694 141.75394,0 -7.64717,7.82593 7.64717,7.82594 -141.75394,0 -7.64717,-7.82594 z"
         id="path11774"
         inkscape:connector-curvature="0"
         sodipodi:nodetypes="ccccccc" />
      <text
         xml:space="preserve"
         style="font-style:normal;font-variant:normal;font-weight:normal;font-stretch:normal;font-size:12.5px;line-height:125%;font-family:'Droid Sans Mono';-inkscape-font-specification:'Droid Sans Mono, Normal';text-align:center;letter-spacing:0px;word-spacing:0px;writing-mode:lr-tb;text-anchor:middle;fill:#ff00ff;fill-opacity:1;stroke:none;stroke-width:1px;stroke-linecap:butt;stroke-linejoin:miter;stroke-opacity:1"
         x="580.64069"
         y="754.19928"
         id="text11729"
         sodipodi:linespacing="125%"><tspan
           y="754.19928"
           x="580.64069"
           id="tspan11733"
           sodipodi:role="line">message response</tspan></text>
    </g>
  </g>
</svg>
